[{
    "name": "mysql",
    "type": "mysql",
    "host": "localhost",
    "port": 3306,
    "username": "root",
    "password": "1234",
    "database": "testdb",
    "synchronize": true,
    "entities": [
        "src/data/entities/*.entity.ts"
    ]
}]